{
	"nodeInfo": {
		"generationHash": "EE0B9F6C0617C506782FF45E28BADEF3FF566E7D9B1E215FF62F1C8838385BBC",
		"nodeUrl": "http://18.140.67.254:3000",
		"wsNodeUrl": "ws://18.140.67.254:3000",
		"networkType": "PRIVATE_TEST",
		"mosaicHexId": "28120A7BD5B789F1",
		"checkTransactionTypes": [],
		"blockedTransactionTypes": [
			"TRANSFER"
		]
	},
	"testFeatures": {
		"multisigConversion": true,
		"mosaicCreation": {
			"enabled": false,
			"mosaics": [
				{
					"name": "df.usd",
					"properties": {
						"supplyMutable": true,
						"transferable": true,
						"divisibility": 6
					},
					"supply": 9000000000
				},
				{
					"name": "df.fiatusd",
					"properties": {
						"supplyMutable": true,
						"transferable": true,
						"divisibility": 6
					},
					"supply": 9000000000
				},
				{
					"name": "df.khr",
					"properties": {
						"supplyMutable": true,
						"transferable": true,
						"divisibility": 4
					},
					"supply": 9000000000
				},
				{
					"name": "df.fiatkhr",
					"properties": {
						"supplyMutable": true,
						"transferable": true,
						"divisibility": 4
					},
					"supply": 9000000000
				}
			]
		},
		"simpleTransfer": false,
		"getGenesisBlock": false,
		"multisigAggregateComplete": false,
		"accountBalanceCheck": false,
		"chainConfigUpdate": {
			"enabled": false,
			"nemesisPrivateKey": "D15281DDB335FC4A9BC902128DF04A1C66391F8C4733A7C9D4523657817D608D",
			"updateOnChainHeight": 16288
		}
	}
}
